2021-01-19 16:20:37,871 - DEBUG - [(null)] - [(null)] -  INICIO SISTEMA - [] 

2021-01-19 16:37:20,336 - DEBUG - [(null)] - [(null)] -  INICIO SISTEMA - [] 

2021-01-19 16:40:32,673 - DEBUG - [(null)] - [(null)] -  INICIO SISTEMA - [] 

2021-01-19 16:41:59,757 - DEBUG - [(null)] - [(null)] -  INICIO SISTEMA - [] 

2021-01-19 16:44:17,381 - DEBUG - [(null)] - [(null)] -  INICIO SISTEMA - [] 

2021-01-19 16:48:58,105 - DEBUG - [(null)] - [(null)] -  INICIO SISTEMA - [] 

2021-01-19 16:49:54,430 - DEBUG - [(null)] - [(null)] -  INICIO SISTEMA - [] 

2021-01-19 16:50:45,439 - DEBUG - [(null)] - [(null)] -  INICIO SISTEMA - [] 

2021-01-19 16:56:46,281 - DEBUG - [(null)] - [(null)] -  INICIO SISTEMA - [] 

2021-01-19 17:46:05,854 - DEBUG - [(null)] - [(null)] -  INICIO SISTEMA - [] 

2021-01-19 17:47:22,348 - ERROR - [00006091161598563990] - [sepulvedaherrera.7] -  Error Insert Additional Data Client TPClient AdditionalDataCode:COPH - AdditionalDataValue: - Response:-1 - Additional data value cannot be empty - [] 

2021-01-19 18:08:39,789 - DEBUG - [(null)] - [(null)] -  INICIO SISTEMA - [] 

2021-01-20 09:53:00,245 - DEBUG - [(null)] - [(null)] -  INICIO SISTEMA - [] 

2021-01-20 09:57:14,480 - DEBUG - [(null)] - [(null)] -  INICIO SISTEMA - [] 

2021-01-20 10:49:42,237 - DEBUG - [(null)] - [(null)] -  INICIO SISTEMA - [] 

2021-01-20 11:23:12,810 - DEBUG - [(null)] - [(null)] -  INICIO SISTEMA - [] 

2021-01-20 11:40:47,215 - DEBUG - [(null)] - [(null)] -  INICIO SISTEMA - [] 

2021-01-20 11:43:53,446 - ERROR - [00006091161598563990] - [sepulvedaherrera.7] -  Error Insert Additional Data Client TPClient AdditionalDataCode:COPH - AdditionalDataValue: - Response:-1 - Additional data value cannot be empty - [] 

2021-01-20 11:43:55,231 - ERROR - [00006091161598563990] - [sepulvedaherrera.7] -  Error SaveCase TPClient guid:44e8a2f6-6aca-409d-9ee4-b8a700431144 - Response:-5 - A mandatory Additional data is missing - [] 

2021-01-20 11:44:09,655 - ERROR - [00006091161598563990] - [sepulvedaherrera.7] -  Error Insert Additional Data Client TPClient AdditionalDataCode:COPH - AdditionalDataValue: - Response:-1 - Additional data value cannot be empty - [] 

2021-01-20 11:44:13,949 - ERROR - [00006091161598563990] - [sepulvedaherrera.7] -  Error SaveCase TPClient guid:440597a8-7a71-44c4-91d9-8af975e3bfac - Response:-5 - A mandatory Additional data is missing - [] 

2021-01-20 11:44:27,708 - ERROR - [00006091161598563990] - [sepulvedaherrera.7] -  Error Insert Additional Data Client TPClient AdditionalDataCode:COPH - AdditionalDataValue: - Response:-1 - Additional data value cannot be empty - [] 

2021-01-20 11:44:29,111 - ERROR - [00006091161598563990] - [sepulvedaherrera.7] -  Error SaveCase TPClient guid:7a95fc2e-20d3-4805-a8e6-3fc2407f87d2 - Response:-5 - A mandatory Additional data is missing - [] 

2021-01-20 11:45:03,396 - ERROR - [00006091161598563990] - [sepulvedaherrera.7] -  Error Insert Additional Data Client TPClient AdditionalDataCode:COPH - AdditionalDataValue: - Response:-1 - Additional data value cannot be empty - [] 

2021-01-20 11:46:55,493 - ERROR - [00006091161598563990] - [sepulvedaherrera.7] -  Error SaveCase TPClient guid:38315648-2759-4802-a835-8c8c4bce4ff0 - Response:-5 - A mandatory Additional data is missing - [] 

2021-01-20 11:47:55,811 - ERROR - [00006091161598563990] - [sepulvedaherrera.7] -  Error Insert Additional Data Client TPClient AdditionalDataCode:COPH - AdditionalDataValue: - Response:-1 - Additional data value cannot be empty - [] 

2021-01-20 11:48:30,731 - ERROR - [00006091161598563990] - [sepulvedaherrera.7] -  Error SaveCase TPClient guid:82bcaeed-4a2f-4196-954b-bb4e9616f59d - Response:-5 - A mandatory Additional data is missing - [] 

2021-01-20 11:48:43,857 - ERROR - [00006091161598563990] - [sepulvedaherrera.7] -  Error Insert Additional Data Client TPClient AdditionalDataCode:COPH - AdditionalDataValue: - Response:-1 - Additional data value cannot be empty - [] 

2021-01-20 11:48:50,762 - ERROR - [00006091161598563990] - [sepulvedaherrera.7] -  Error SaveCase TPClient guid:4a46f249-baa0-4c28-ada6-d11c32eee16d - Response:-5 - A mandatory Additional data is missing - [] 

2021-01-20 12:05:17,108 - ERROR - [00006091161598563990] - [sepulvedaherrera.7] -  Error Insert Additional Data Client TPClient AdditionalDataCode:COPH - AdditionalDataValue: - Response:-1 - Additional data value cannot be empty - [] 

2021-01-20 15:28:15,455 - DEBUG - [(null)] - [(null)] -  INICIO SISTEMA - [] 

2021-01-20 15:29:20,668 - DEBUG - [(null)] - [(null)] -  INICIO SISTEMA - [] 

2021-01-20 15:43:38,329 - DEBUG - [(null)] - [(null)] -  INICIO SISTEMA - [] 

2021-01-20 15:47:57,790 - DEBUG - [(null)] - [(null)] -  INICIO SISTEMA - [] 

2021-01-20 15:55:41,987 - DEBUG - [(null)] - [(null)] -  INICIO SISTEMA - [] 

2021-01-21 08:54:30,688 - DEBUG - [(null)] - [(null)] -  INICIO SISTEMA - [] 

2021-01-21 08:59:17,083 - ERROR - [00006091161598563990] - [sepulvedaherrera.7] -  Error Insert Additional Data Client TPClient AdditionalDataCode:COPH - AdditionalDataValue: - Response:-1 - Additional data value cannot be empty - [] 

2021-01-21 09:04:22,462 - DEBUG - [(null)] - [(null)] -  INICIO SISTEMA - [] 

2021-01-21 09:04:39,742 - ERROR - [00006091161598563990] - [sepulvedaherrera.7] -  Error Insert Additional Data Client TPClient AdditionalDataCode:COPH - AdditionalDataValue: - Response:-1 - Additional data value cannot be empty - [] 

2021-01-21 15:04:40,642 - DEBUG - [(null)] - [(null)] -  INICIO SISTEMA - [] 

2021-01-21 15:04:56,673 - ERROR - [00006091161598563990] - [sepulvedaherrera.7] -  Error Insert Additional Data Client TPClient AdditionalDataCode:COPH - AdditionalDataValue: - Response:-1 - Additional data value cannot be empty - [] 

2021-01-21 15:15:50,254 - DEBUG - [(null)] - [(null)] -  INICIO SISTEMA - [] 

2021-01-21 15:17:26,635 - ERROR - [00006091161598563990] - [sepulvedaherrera.7] -  Error Insert Additional Data Client TPClient AdditionalDataCode:COPH - AdditionalDataValue: - Response:-1 - Additional data value cannot be empty - [] 

2021-01-21 15:18:27,287 - DEBUG - [(null)] - [(null)] -  INICIO SISTEMA - [] 

2021-01-21 15:19:12,429 - ERROR - [00006091161598563990] - [sepulvedaherrera.7] -  Error Insert Additional Data Client TPClient AdditionalDataCode:COPH - AdditionalDataValue: - Response:-1 - Additional data value cannot be empty - [] 

2021-01-21 15:19:38,936 - ERROR - [00006091161598563990] - [sepulvedaherrera.7] -  Error SaveCase TPClient guid:7edbd1d0-bc6b-497a-b7c0-615aa0d2199c - Response:-2 - Validation error: Invalid organization/Relation - [] 

2021-01-21 15:19:48,183 - ERROR - [00006091161598563990] - [sepulvedaherrera.7] -  Error Insert Additional Data Client TPClient AdditionalDataCode:COPH - AdditionalDataValue: - Response:-1 - Additional data value cannot be empty - [] 

2021-01-21 15:21:02,806 - DEBUG - [(null)] - [(null)] -  INICIO SISTEMA - [] 

2021-01-21 15:22:13,455 - ERROR - [00006091161598563990] - [sepulvedaherrera.7] -  Error Insert Additional Data Client TPClient AdditionalDataCode:COPH - AdditionalDataValue: - Response:-1 - Additional data value cannot be empty - [] 

2021-01-21 15:23:47,692 - ERROR - [00006091161598563990] - [sepulvedaherrera.7] -  Error Insert Additional Data Client TPClient AdditionalDataCode:COPH - AdditionalDataValue: - Response:-1 - Additional data value cannot be empty - [] 

2021-01-21 15:24:03,625 - ERROR - [00006091161598563990] - [sepulvedaherrera.7] -  Error SaveCase TPClient guid:115e8f7d-237c-4161-a6a3-d63e7d7b45a6 - Response:-2 - Validation error: Invalid BranchCodeTree2 - [] 

2021-01-21 15:25:27,875 - DEBUG - [(null)] - [(null)] -  INICIO SISTEMA - [] 

2021-01-21 15:26:14,030 - ERROR - [00006091161598563990] - [sepulvedaherrera.7] -  Error Insert Additional Data Client TPClient AdditionalDataCode:COPH - AdditionalDataValue: - Response:-1 - Additional data value cannot be empty - [] 

2021-01-21 15:27:01,639 - DEBUG - [(null)] - [(null)] -  INICIO SISTEMA - [] 

2021-01-21 15:27:18,368 - ERROR - [00006091161598563990] - [sepulvedaherrera.7] -  Error Insert Additional Data Client TPClient AdditionalDataCode:COPH - AdditionalDataValue: - Response:-1 - Additional data value cannot be empty - [] 

2021-01-21 15:28:51,495 - DEBUG - [(null)] - [(null)] -  INICIO SISTEMA - [] 

2021-01-21 15:30:14,892 - ERROR - [00006091161598563990] - [sepulvedaherrera.7] -  Error Insert Additional Data Client TPClient AdditionalDataCode:COPH - AdditionalDataValue: - Response:-1 - Additional data value cannot be empty - [] 

2021-01-21 15:31:17,079 - ERROR - [00006091161598563990] - [sepulvedaherrera.7] -  Error Insert Additional Data Client TPClient AdditionalDataCode:COPH - AdditionalDataValue: - Response:-1 - Additional data value cannot be empty - [] 

2021-01-21 15:31:18,574 - ERROR - [00006091161598563990] - [sepulvedaherrera.7] -  Error SaveCase TPClient guid:d982974a-98e7-4798-8be0-cb717973f562 - Response:-5 - A mandatory Additional data is missing - [] 

2021-01-21 15:31:46,531 - ERROR - [00006091161598563990] - [sepulvedaherrera.7] -  Error Insert Additional Data Client TPClient AdditionalDataCode:COPH - AdditionalDataValue: - Response:-1 - Additional data value cannot be empty - [] 

2021-01-21 15:33:08,898 - ERROR - [00006091161598563990] - [sepulvedaherrera.7] -  Error SaveCase TPClient guid:29a4e58e-d1d8-4f0a-b819-a360f90bff45 - Response:-5 - A mandatory Additional data is missing - [] 

2021-01-21 15:34:24,114 - ERROR - [00006091161598563990] - [sepulvedaherrera.7] -  Error Insert Additional Data Client TPClient AdditionalDataCode:COPH - AdditionalDataValue: - Response:-1 - Additional data value cannot be empty - [] 

2021-01-21 15:37:54,659 - ERROR - [00006091161598563990] - [sepulvedaherrera.7] -  Error Insert Additional Data Client TPClient AdditionalDataCode:COPH - AdditionalDataValue: - Response:-1 - Additional data value cannot be empty - [] 

2021-01-21 15:38:23,846 - ERROR - [00006091161598563990] - [sepulvedaherrera.7] -  Error SaveCase TPClient guid:c2cbafe0-e82a-4c6a-86c2-bea70cf5ef5d - Response:-5 - A mandatory Additional data is missing - [] 

2021-01-21 15:51:01,159 - DEBUG - [(null)] - [(null)] -  INICIO SISTEMA - [] 

2021-01-21 15:51:54,677 - ERROR - [00006091161598563990] - [sepulvedaherrera.7] -  Error Insert Additional Data Client TPClient AdditionalDataCode:COPH - AdditionalDataValue: - Response:-1 - Additional data value cannot be empty - [] 

2021-01-21 15:52:46,084 - ERROR - [00006091161598563990] - [sepulvedaherrera.7] -  Error Insert Additional Data Client TPClient AdditionalDataCode:COPH - AdditionalDataValue: - Response:-1 - Additional data value cannot be empty - [] 

2021-01-21 15:53:14,574 - ERROR - [00006091161598563990] - [sepulvedaherrera.7] -  Error SaveCase TPClient guid:f0b49898-bd74-48bc-aca1-3e6ebbe8c518 - Response:-5 - A mandatory Additional data is missing - [] 

2021-01-21 15:57:16,847 - ERROR - [00006091161598563990] - [sepulvedaherrera.7] -  Error Insert Additional Data Client TPClient AdditionalDataCode:COPH - AdditionalDataValue: - Response:-1 - Additional data value cannot be empty - [] 

2021-01-21 15:57:57,294 - ERROR - [00006091161598563990] - [sepulvedaherrera.7] -  Error SaveCase TPClient guid:c6631c1f-467c-4d3a-bbd7-55e4bba97277 - Response:-5 - A mandatory Additional data is missing - [] 

2021-01-21 15:58:37,969 - ERROR - [00006091161598563990] - [sepulvedaherrera.7] -  Error Insert Additional Data Client TPClient AdditionalDataCode:COPH - AdditionalDataValue: - Response:-1 - Additional data value cannot be empty - [] 

2021-01-21 15:59:19,561 - ERROR - [00006091161598563990] - [sepulvedaherrera.7] -  Error Insert Additional Data Client TPClient AdditionalDataCode:COPH - AdditionalDataValue: - Response:-1 - Additional data value cannot be empty - [] 

2021-01-21 16:00:09,462 - ERROR - [00006091161598563990] - [sepulvedaherrera.7] -  Error Insert Additional Data Client TPClient AdditionalDataCode:COPH - AdditionalDataValue: - Response:-1 - Additional data value cannot be empty - [] 

2021-01-21 16:00:48,272 - ERROR - [00006091161598563990] - [sepulvedaherrera.7] -  Error Insert Additional Data Client TPClient AdditionalDataCode:COPH - AdditionalDataValue: - Response:-1 - Additional data value cannot be empty - [] 

2021-01-21 16:11:06,177 - DEBUG - [(null)] - [(null)] -  INICIO SISTEMA - [] 

2021-01-21 16:13:12,150 - ERROR - [00006091161598563990] - [sepulvedaherrera.7] -  Error Insert Additional Data Client TPClient AdditionalDataCode:COPH - AdditionalDataValue: - Response:-1 - Additional data value cannot be empty - [] 

2021-01-21 16:13:53,534 - ERROR - [00006091161598563990] - [sepulvedaherrera.7] -  Error Insert Additional Data Client TPClient AdditionalDataCode:COPH - AdditionalDataValue: - Response:-1 - Additional data value cannot be empty - [] 

2021-01-21 17:38:46,049 - DEBUG - [(null)] - [(null)] -  INICIO SISTEMA - [] 

2021-01-22 12:20:39,572 - DEBUG - [(null)] - [(null)] -  INICIO SISTEMA - [] 

2021-01-22 12:31:34,978 - DEBUG - [(null)] - [(null)] -  INICIO SISTEMA - [] 

2021-01-22 12:38:05,045 - DEBUG - [(null)] - [(null)] -  INICIO SISTEMA - [] 

2021-01-22 12:46:06,751 - ERROR - [00006091161598563990] - [sepulvedaherrera.7] -  Error SaveCase TPClient guid:7ed6e7f2-c39e-4cd2-845b-4c35ead1f354 - Response:-5 - A mandatory Additional data is missing - [] 

2021-01-22 12:46:46,689 - ERROR - [00006091161598563990] - [sepulvedaherrera.7] -  Error SaveCase TPClient guid:396974e1-3f05-4f10-88fb-43a2a1f9b956 - Response:-5 - A mandatory Additional data is missing - [] 

2021-01-22 12:48:53,553 - ERROR - [00006091161598563990] - [sepulvedaherrera.7] -  Error SaveCase TPClient guid:9eac7f31-c56d-4f0f-9fab-565665939eaf - Response:-5 - A mandatory Additional data is missing - [] 

2021-01-22 12:52:02,210 - ERROR - [00006091161598563990] - [sepulvedaherrera.7] -  Error SaveCase TPClient guid:6851749a-879b-4e8c-a54e-f82682841ce9 - Response:-5 - A mandatory Additional data is missing - [] 

2021-01-22 12:57:31,951 - ERROR - [00006091161598563990] - [sepulvedaherrera.7] -  Error SaveCase TPClient guid:35f06a8a-75ca-41ec-8390-5a7ae6936c06 - Response:-5 - A mandatory Additional data is missing - [] 

2021-01-22 12:57:53,044 - DEBUG - [(null)] - [(null)] -  INICIO SISTEMA - [] 

2021-01-22 13:17:30,076 - DEBUG - [(null)] - [(null)] -  INICIO SISTEMA - [] 

2021-01-22 13:18:24,807 - ERROR - [00006091161598563990] - [sepulvedaherrera.7] -  Error SaveCase TPClient guid:2d83539d-0853-45ab-bbd2-952b79415429 - Response:-5 - A mandatory Additional data is missing - [] 

2021-01-22 13:19:42,333 - DEBUG - [(null)] - [(null)] -  INICIO SISTEMA - [] 

2021-01-22 13:21:07,813 - ERROR - [00006091161598563990] - [sepulvedaherrera.7] -  Error SaveCase TPClient guid:61d6cd10-29f0-47fc-a529-e2e634db2001 - Response:-5 - A mandatory Additional data is missing - [] 

2021-01-22 13:21:34,760 - DEBUG - [(null)] - [(null)] -  INICIO SISTEMA - [] 

2021-01-22 13:22:29,531 - ERROR - [00006091161598563990] - [sepulvedaherrera.7] -  Error SaveCase TPClient guid:def7fe1a-6bf0-466f-b894-0b0d795d87cd - Response:-5 - A mandatory Additional data is missing - [] 

2021-01-22 13:23:11,846 - ERROR - [00006091161598563990] - [sepulvedaherrera.7] -  Error SaveCase TPClient guid:1be0c833-1ab2-42f0-a365-c100a92361d2 - Response:-5 - A mandatory Additional data is missing - [] 

2021-01-22 13:23:29,150 - ERROR - [00006091161598563990] - [sepulvedaherrera.7] -  Error SaveCase TPClient guid:82a8c2b9-672b-4025-9608-3ca8e9aeb1e9 - Response:-5 - A mandatory Additional data is missing - [] 

2021-01-22 13:23:37,575 - ERROR - [00006091161598563990] - [sepulvedaherrera.7] -  Error SaveCase TPClient guid:5d6e3a15-488c-4540-92fb-5511d35dbc31 - Response:-5 - A mandatory Additional data is missing - [] 

2021-01-22 13:23:46,264 - ERROR - [00006091161598563990] - [sepulvedaherrera.7] -  Error SaveCase TPClient guid:9dd3580c-1f42-435e-a48b-1e891c6ae9f9 - Response:-5 - A mandatory Additional data is missing - [] 

2021-01-22 13:25:47,422 - DEBUG - [(null)] - [(null)] -  INICIO SISTEMA - [] 

2021-01-22 13:26:23,360 - ERROR - [00006091161598563990] - [sepulvedaherrera.7] -  Error SaveCase TPClient guid:449dedd6-2830-4f08-a783-2ce500152107 - Response:-5 - A mandatory Additional data is missing - [] 

2021-01-22 13:31:20,105 - DEBUG - [(null)] - [(null)] -  INICIO SISTEMA - [] 

2021-01-22 16:03:26,154 - DEBUG - [(null)] - [(null)] -  INICIO SISTEMA - [] 

2021-01-22 16:06:19,890 - DEBUG - [(null)] - [(null)] -  INICIO SISTEMA - [] 

2021-01-22 16:07:15,921 - DEBUG - [(null)] - [(null)] -  INICIO SISTEMA - [] 

2021-01-22 16:08:49,823 - ERROR - [00006091161598563990] - [sepulvedaherrera.7] -  Error SaveCase TPClient guid:4cb583a3-b58d-4a7f-976c-9e6b266153c8 - Response:-5 - A mandatory Additional data is missing - [] 

2021-01-22 16:11:28,083 - ERROR - [00006091161598563990] - [sepulvedaherrera.7] -  Error SaveCase TPClient guid:c435d64b-3ec9-43d3-961c-9a97c027f4c9 - Response:-5 - A mandatory Additional data is missing - [] 

2021-01-22 16:13:55,171 - ERROR - [00006091161598563990] - [sepulvedaherrera.7] -  Error SaveCase TPClient guid:164e675b-88de-4aea-9cbc-5110d829277c - Response:-5 - A mandatory Additional data is missing - [] 

2021-01-22 16:14:17,944 - ERROR - [00006091161598563990] - [sepulvedaherrera.7] -  Error SaveCase TPClient guid:f88b7332-ca15-4053-bc0e-61e1ea536b5f - Response:-5 - A mandatory Additional data is missing - [] 

2021-01-22 16:16:20,919 - DEBUG - [(null)] - [(null)] -  INICIO SISTEMA - [] 

2021-01-22 16:17:14,063 - ERROR - [00006091161598563990] - [sepulvedaherrera.7] -  Error SaveCase TPClient guid:5794832a-4688-474f-a4e4-4e44d3fd2383 - Response:-5 - A mandatory Additional data is missing - [] 

2021-01-25 09:33:56,133 - DEBUG - [(null)] - [(null)] -  INICIO SISTEMA - [] 

2021-02-03 17:51:28,458 - DEBUG - [(null)] - [(null)] -  INICIO SISTEMA - [] 

2021-02-03 17:56:16,178 - DEBUG - [(null)] - [(null)] -  INICIO SISTEMA - [] 

2021-02-26 11:31:48,621 - DEBUG - [(null)] - [(null)] -  INICIO SISTEMA - [] 

2021-02-26 11:32:49,902 - DEBUG - [(null)] - [(null)] -  INICIO SISTEMA - [] 

2021-05-16 11:58:28,789 - DEBUG - [(null)] - [(null)] -  INICIO SISTEMA - [] 

2021-05-16 11:59:13,880 - DEBUG - [(null)] - [(null)] -  INICIO SISTEMA - [] 

2021-05-16 12:00:27,344 - DEBUG - [(null)] - [(null)] -  Error GetBranchesByTree TreeId:CH - Response:-3 - No branches found - [] 

2021-05-16 12:03:50,520 - DEBUG - [(null)] - [(null)] -  INICIO SISTEMA - [] 

2021-05-16 12:04:14,587 - DEBUG - [(null)] - [munerahernandez.5] -  Error GetBranchesByTree TreeId:CH - Response:-3 - No branches found - [] 

2021-05-16 12:26:48,851 - DEBUG - [(null)] - [(null)] -  INICIO SISTEMA - [] 

2021-05-16 12:27:34,481 - DEBUG - [(null)] - [munerahernandez.5] -  Error GetBranchesByTree TreeId:CH - Response:-3 - No branches found - [] 

2021-05-16 12:28:30,348 - Audit - [(null)] - [(null)] -  GetClientByDocument - [] 

2021-05-17 20:36:21,805 - DEBUG - [(null)] - [(null)] -  INICIO SISTEMA - [] 

2021-05-17 20:36:59,438 - DEBUG - [(null)] - [munerahernandez.5] -  Error GetBranchesByTree TreeId:CH - Response:-3 - No branches found - [] 

2021-05-17 20:37:07,700 - Audit - [(null)] - [(null)] -  GetClientByDocument - [] 

2021-05-17 21:21:06,119 - DEBUG - [(null)] - [(null)] -  INICIO SISTEMA - [] 

2021-05-17 21:21:39,012 - DEBUG - [(null)] - [munerahernandez.5] -  Error GetBranchesByTree TreeId:CH - Response:-3 - No branches found - [] 

2021-05-17 21:21:45,615 - Audit - [(null)] - [(null)] -  GetClientByDocument - [] 

2021-05-18 08:39:36,784 - DEBUG - [(null)] - [(null)] -  INICIO SISTEMA - [] 

2021-05-18 08:39:59,838 - DEBUG - [] - [] -  Error GetRamasByParent TreeId: TI1SP - Response:-3 - No branches found - [] 

2021-05-18 08:43:34,707 - DEBUG - [(null)] - [(null)] -  INICIO SISTEMA - [] 

2021-05-18 08:46:16,860 - DEBUG - [(null)] - [(null)] -  INICIO SISTEMA - [] 

2021-05-18 08:47:26,971 - DEBUG - [(null)] - [(null)] -  INICIO SISTEMA - [] 

2021-05-18 08:47:55,172 - DEBUG - [(null)] - [munerahernandez.5] -  Error GetBranchesByTree TreeId:CH - Response:-3 - No branches found - [] 

2021-05-18 08:48:00,232 - Audit - [(null)] - [(null)] -  GetClientByDocument - [] 

2021-05-18 08:48:30,567 - Audit - [(null)] - [(null)] -  GetClientByDocument - [] 

2021-05-18 09:46:31,700 - DEBUG - [(null)] - [(null)] -  INICIO SISTEMA - [] 

2021-05-18 09:47:05,964 - DEBUG - [(null)] - [munerahernandez.5] -  Error GetBranchesByTree TreeId:CH - Response:-3 - No branches found - [] 

2021-05-18 09:47:16,904 - Audit - [(null)] - [(null)] -  GetClientByDocument - [] 

2021-05-18 09:49:21,362 - DEBUG - [(null)] - [(null)] -  INICIO SISTEMA - [] 

2021-05-18 09:49:34,501 - DEBUG - [(null)] - [munerahernandez.5] -  Error GetBranchesByTree TreeId:CH - Response:-3 - No branches found - [] 

2021-05-18 09:49:50,202 - Audit - [(null)] - [(null)] -  GetClientByDocument - [] 

2021-05-18 11:22:16,438 - DEBUG - [(null)] - [(null)] -  INICIO SISTEMA - [] 

2021-05-18 11:22:49,836 - DEBUG - [(null)] - [munerahernandez.5] -  Error GetBranchesByTree TreeId:CH - Response:-3 - No branches found - [] 

2021-05-18 13:02:45,305 - DEBUG - [(null)] - [(null)] -  INICIO SISTEMA - [] 

2021-05-18 13:03:11,687 - DEBUG - [(null)] - [munerahernandez.5] -  Error GetBranchesByTree TreeId:CH - Response:-3 - No branches found - [] 

2021-05-18 13:23:46,500 - DEBUG - [(null)] - [(null)] -  INICIO SISTEMA - [] 

2021-05-18 13:25:09,689 - DEBUG - [(null)] - [(null)] -  INICIO SISTEMA - [] 

2021-05-18 13:26:53,905 - DEBUG - [(null)] - [(null)] -  INICIO SISTEMA - [] 

2021-05-18 13:27:14,070 - DEBUG - [(null)] - [(null)] -  INICIO SISTEMA - [] 

2021-05-18 13:30:10,114 - DEBUG - [(null)] - [(null)] -  INICIO SISTEMA - [] 

2021-05-18 13:33:36,947 - DEBUG - [(null)] - [(null)] -  INICIO SISTEMA - [] 

2021-05-18 13:33:51,087 - FATAL - [] - [] -  ListAdditonalDataCaseReferencia a objeto no establecida como instancia de un objeto. - [] 

2021-05-18 13:33:51,098 - ERROR - [] - [] -  Referencia a objeto no establecida como instancia de un objeto. - [] 

2021-05-18 13:35:18,673 - DEBUG - [(null)] - [(null)] -  INICIO SISTEMA - [] 

2021-05-18 13:35:53,208 - DEBUG - [(null)] - [(null)] -  INICIO SISTEMA - [] 

2021-05-18 13:37:01,077 - DEBUG - [(null)] - [munerahernandez.5] -  Error GetBranchesByTree TreeId:CH - Response:-3 - No branches found - [] 

2021-05-18 13:37:54,796 - DEBUG - [(null)] - [(null)] -  INICIO SISTEMA - [] 

2021-05-18 13:38:58,100 - DEBUG - [(null)] - [(null)] -  INICIO SISTEMA - [] 

2021-05-18 13:39:27,656 - DEBUG - [(null)] - [munerahernandez.5] -  Error GetBranchesByTree TreeId:CH - Response:-3 - No branches found - [] 

2021-05-18 13:53:56,978 - DEBUG - [(null)] - [(null)] -  INICIO SISTEMA - [] 

2021-05-18 13:54:17,276 - DEBUG - [(null)] - [(null)] -  Error GetBranchesByTree TreeId:CH - Response:-3 - No branches found - [] 

2021-05-18 14:51:10,703 - DEBUG - [(null)] - [(null)] -  INICIO SISTEMA - [] 

2021-05-18 14:51:25,511 - DEBUG - [(null)] - [munerahernandez.5] -  Error GetBranchesByTree TreeId:CH - Response:-3 - No branches found - [] 

2021-05-18 14:51:28,965 - Audit - [(null)] - [(null)] -  GetClientByDocument - [] 

2021-05-18 16:39:22,705 - DEBUG - [(null)] - [(null)] -  INICIO SISTEMA - [] 

2021-05-18 16:39:27,651 - DEBUG - [(null)] - [munerahernandez.5] -  Error GetBranchesByTree TreeId:CH - Response:-3 - No branches found - [] 

2021-05-18 16:39:30,164 - Audit - [(null)] - [(null)] -  GetClientByDocument - [] 

2021-05-18 16:39:49,271 - Audit - [(null)] - [(null)] -  GetClientByDocument - [] 

2021-05-18 16:40:20,055 - DEBUG - [2544455] - [munerahernandez.5] -  Classify1_Id_BRANCH:101 - [] 

2021-05-18 16:40:20,056 - DEBUG - [2544455] - [munerahernandez.5] -  Classify2_Id_BRANCH:4 - [] 

2021-05-18 16:40:20,056 - DEBUG - [2544455] - [munerahernandez.5] -  Classify3_Id_BRANCH:101 - [] 

2021-05-18 16:40:20,056 - DEBUG - [2544455] - [munerahernandez.5] -  Classify4_Id_BRANCH:NA_BRANCH - [] 

2021-05-18 16:40:20,056 - DEBUG - [2544455] - [munerahernandez.5] -  Classify5_Id_BRANCH:NA_BRANCH - [] 

2021-05-18 16:40:20,057 - DEBUG - [2544455] - [munerahernandez.5] -  clienteVIP:0 - [] 

2021-05-18 16:40:20,057 - DEBUG - [2544455] - [munerahernandez.5] -  Comments:Pruebas - [] 

2021-05-18 16:41:56,669 - DEBUG - [(null)] - [(null)] -  INICIO SISTEMA - [] 

2021-05-18 16:42:00,603 - DEBUG - [(null)] - [munerahernandez.5] -  Error GetBranchesByTree TreeId:CH - Response:-3 - No branches found - [] 

2021-05-18 16:42:02,537 - Audit - [(null)] - [(null)] -  GetClientByDocument - [] 

2021-05-18 16:42:15,306 - Audit - [(null)] - [(null)] -  GetClientByDocument - [] 

2021-05-18 16:42:29,118 - DEBUG - [2544455] - [munerahernandez.5] -  Classify1_Id_BRANCH:97 - [] 

2021-05-18 16:42:29,118 - DEBUG - [2544455] - [munerahernandez.5] -  Classify2_Id_BRANCH:4 - [] 

2021-05-18 16:42:29,118 - DEBUG - [2544455] - [munerahernandez.5] -  Classify3_Id_BRANCH:97 - [] 

2021-05-18 16:42:29,119 - DEBUG - [2544455] - [munerahernandez.5] -  Classify4_Id_BRANCH:NA_BRANCH - [] 

2021-05-18 16:42:29,119 - DEBUG - [2544455] - [munerahernandez.5] -  Classify5_Id_BRANCH:NA_BRANCH - [] 

2021-05-18 16:42:29,119 - DEBUG - [2544455] - [munerahernandez.5] -  clienteVIP:0 - [] 

2021-05-18 16:42:29,119 - DEBUG - [2544455] - [munerahernandez.5] -  Comments:pruws - [] 

2021-05-21 16:36:11,157 - DEBUG - [(null)] - [(null)] -  INICIO SISTEMA - [] 

2021-05-21 16:36:19,700 - DEBUG - [(null)] - [munerahernandez.5] -  Error GetBranchesByTree TreeId:CH - Response:-3 - No branches found - [] 

2021-05-21 16:36:21,647 - Audit - [(null)] - [(null)] -  GetClientByDocument - [] 

2021-06-03 16:07:15,230 - DEBUG - [(null)] - [(null)] -  INICIO SISTEMA - [] 

2021-06-03 16:07:55,843 - DEBUG - [(null)] - [(null)] -  INICIO SISTEMA - [] 

2021-06-03 16:08:16,744 - DEBUG - [(null)] - [munerahernandez.5] -  Error GetBranchesByTree TreeId:CH - Response:-3 - No branches found - [] 

2021-06-03 16:08:19,177 - Audit - [(null)] - [(null)] -  GetClientByDocument - [] 

2021-06-03 16:08:48,194 - DEBUG - [(null)] - [(null)] -  INICIO SISTEMA - [] 

2021-06-03 16:11:06,912 - DEBUG - [(null)] - [munerahernandez.5] -  Error GetBranchesByTree TreeId:CH - Response:-3 - No branches found - [] 

2021-06-03 16:11:09,275 - Audit - [(null)] - [(null)] -  GetClientByDocument - [] 

2021-06-03 16:13:47,897 - Audit - [(null)] - [(null)] -  GetClientByDocument - [] 

2021-06-03 16:22:27,786 - DEBUG - [(null)] - [(null)] -  INICIO SISTEMA - [] 

2021-06-03 16:25:34,400 - DEBUG - [(null)] - [(null)] -  INICIO SISTEMA - [] 

2021-06-03 16:33:41,769 - DEBUG - [(null)] - [munerahernandez.5] -  Error GetBranchesByTree TreeId:CH - Response:-3 - No branches found - [] 

2021-06-03 16:33:45,725 - Audit - [(null)] - [(null)] -  GetClientByDocument - [] 

2021-06-03 16:34:00,202 - DEBUG - [(null)] - [(null)] -  INICIO SISTEMA - [] 

2021-06-03 16:34:39,507 - DEBUG - [(null)] - [munerahernandez.5] -  Error GetBranchesByTree TreeId:CH - Response:-3 - No branches found - [] 

2021-06-03 16:34:43,784 - Audit - [(null)] - [(null)] -  GetClientByDocument - [] 

2021-06-03 16:35:50,625 - Audit - [(null)] - [(null)] -  GetClientByDocument - [] 

2021-06-03 16:36:49,579 - DEBUG - [(null)] - [(null)] -  INICIO SISTEMA - [] 

2021-06-03 16:36:57,644 - DEBUG - [(null)] - [munerahernandez.5] -  Error GetBranchesByTree TreeId:CH - Response:-3 - No branches found - [] 

2021-06-03 16:37:04,334 - Audit - [(null)] - [(null)] -  GetClientByDocument - [] 

2021-06-03 16:37:39,143 - Audit - [(null)] - [(null)] -  GetClientByDocument - [] 

2021-06-03 20:54:46,347 - DEBUG - [(null)] - [(null)] -  INICIO SISTEMA - [] 

2021-06-03 20:55:06,166 - Audit - [(null)] - [(null)] -  GetClientByDocument - [] 

2021-06-03 20:58:06,086 - DEBUG - [(null)] - [(null)] -  INICIO SISTEMA - [] 

2021-06-03 20:58:31,233 - Audit - [(null)] - [(null)] -  GetClientByDocument - [] 

2021-06-03 20:59:33,999 - Audit - [(null)] - [(null)] -  GetClientByDocument - [] 

2021-06-03 20:59:55,563 - Audit - [(null)] - [(null)] -  GetClientByDocument - [] 

2021-06-03 21:10:30,519 - DEBUG - [(null)] - [(null)] -  INICIO SISTEMA - [] 

2021-06-03 21:10:53,038 - Audit - [(null)] - [(null)] -  GetClientByDocument - [] 

2021-06-03 21:14:15,162 - DEBUG - [(null)] - [(null)] -  INICIO SISTEMA - [] 

2021-06-03 21:14:27,008 - Audit - [(null)] - [(null)] -  GetClientByDocument - [] 

2021-06-03 21:15:04,608 - DEBUG - [00001141241622757725] - [munerahernandez.5] -  Error GetBranchesByTree TreeId:CH - Response:-3 - No branches found - [] 

2021-06-03 21:15:06,196 - Audit - [(null)] - [(null)] -  GetClientByDocument - [] 

2021-06-03 21:15:58,545 - Audit - [(null)] - [(null)] -  GetClientByDocument - [] 

2021-06-03 21:16:20,794 - Audit - [(null)] - [(null)] -  GetClientByDocument - [] 

2021-06-03 21:18:33,134 - DEBUG - [(null)] - [(null)] -  INICIO SISTEMA - [] 

2021-06-03 21:18:40,680 - DEBUG - [(null)] - [munerahernandez.5] -  Error GetBranchesByTree TreeId:CH - Response:-3 - No branches found - [] 

2021-06-03 21:18:46,687 - Audit - [(null)] - [(null)] -  GetClientByDocument - [] 

2021-06-03 21:18:46,859 - Audit - [(null)] - [(null)] -  GetClientByDocument - [] 

2021-06-03 21:19:31,265 - Audit - [(null)] - [(null)] -  GetClientByDocument - [] 

2021-06-03 21:19:47,362 - Audit - [(null)] - [(null)] -  GetClientByDocument - [] 

2021-06-03 21:20:01,628 - Audit - [(null)] - [(null)] -  GetClientByDocument - [] 

2021-06-03 21:20:21,446 - Audit - [(null)] - [(null)] -  GetClientByDocument - [] 

